^C:\USERS\TERPY\DOCUMENTS\PROGRAMMING\C++\ASSIGN3\ASSIGNMENT-3-POINTERS\ASSIGNMENT 3 - POINTERS\ASSIGNMENT 3 - POINTERS\MAIN.CPP
A:\VISUAL STUDIO\VC\TOOLS\MSVC\14.24.28314\BIN\HOSTX86\X64\1033\CLUI.DLL
C:\WINDOWS\GLOBALIZATION\SORTING\SORTDEFAULT.NLS
C:\WINDOWS\SYSTEM32\TZRES.DLL
A:\VISUAL STUDIO\VC\TOOLS\MSVC\14.24.28314\INCLUDE\IOSTREAM
A:\VISUAL STUDIO\VC\TOOLS\MSVC\14.24.28314\INCLUDE\YVALS_CORE.H
A:\VISUAL STUDIO\VC\TOOLS\MSVC\14.24.28314\INCLUDE\VCRUNTIME.H
A:\VISUAL STUDIO\VC\TOOLS\MSVC\14.24.28314\INCLUDE\SAL.H
A:\VISUAL STUDIO\VC\TOOLS\MSVC\14.24.28314\INCLUDE\CONCURRENCYSAL.H
A:\VISUAL STUDIO\VC\TOOLS\MSVC\14.24.28314\INCLUDE\VADEFS.H
A:\VISUAL STUDIO\VC\TOOLS\MSVC\14.24.28314\INCLUDE\XKEYCHECK.H
A:\VISUAL STUDIO\VC\TOOLS\MSVC\14.24.28314\INCLUDE\ISTREAM
A:\VISUAL STUDIO\VC\TOOLS\MSVC\14.24.28314\INCLUDE\OSTREAM
A:\VISUAL STUDIO\VC\TOOLS\MSVC\14.24.28314\INCLUDE\IOS
A:\VISUAL STUDIO\VC\TOOLS\MSVC\14.24.28314\INCLUDE\XLOCNUM
A:\VISUAL STUDIO\VC\TOOLS\MSVC\14.24.28314\INCLUDE\CLIMITS
A:\VISUAL STUDIO\VC\TOOLS\MSVC\14.24.28314\INCLUDE\LIMITS.H
A:\VISUAL STUDIO\VC\TOOLS\MSVC\14.24.28314\INCLUDE\CMATH
A:\VISUAL STUDIO\VC\TOOLS\MSVC\14.24.28314\INCLUDE\YVALS.H
C:\PROGRAM FILES (X86)\WINDOWS KITS\10\INCLUDE\10.0.18362.0\UCRT\CRTDBG.H
C:\PROGRAM FILES (X86)\WINDOWS KITS\10\INCLUDE\10.0.18362.0\UCRT\CORECRT.H
A:\VISUAL STUDIO\VC\TOOLS\MSVC\14.24.28314\INCLUDE\VCRUNTIME_NEW_DEBUG.H
A:\VISUAL STUDIO\VC\TOOLS\MSVC\14.24.28314\INCLUDE\VCRUNTIME_NEW.H
A:\VISUAL STUDIO\VC\TOOLS\MSVC\14.24.28314\INCLUDE\CRTDEFS.H
A:\VISUAL STUDIO\VC\TOOLS\MSVC\14.24.28314\INCLUDE\USE_ANSI.H
A:\VISUAL STUDIO\VC\TOOLS\MSVC\14.24.28314\INCLUDE\CSTDLIB
C:\PROGRAM FILES (X86)\WINDOWS KITS\10\INCLUDE\10.0.18362.0\UCRT\MATH.H
C:\PROGRAM FILES (X86)\WINDOWS KITS\10\INCLUDE\10.0.18362.0\UCRT\CORECRT_MATH.H
C:\PROGRAM FILES (X86)\WINDOWS KITS\10\INCLUDE\10.0.18362.0\UCRT\STDLIB.H
C:\PROGRAM FILES (X86)\WINDOWS KITS\10\INCLUDE\10.0.18362.0\UCRT\CORECRT_MALLOC.H
C:\PROGRAM FILES (X86)\WINDOWS KITS\10\INCLUDE\10.0.18362.0\UCRT\CORECRT_SEARCH.H
C:\PROGRAM FILES (X86)\WINDOWS KITS\10\INCLUDE\10.0.18362.0\UCRT\STDDEF.H
C:\PROGRAM FILES (X86)\WINDOWS KITS\10\INCLUDE\10.0.18362.0\UCRT\CORECRT_WSTDLIB.H
A:\VISUAL STUDIO\VC\TOOLS\MSVC\14.24.28314\INCLUDE\XTGMATH.H
A:\VISUAL STUDIO\VC\TOOLS\MSVC\14.24.28314\INCLUDE\XTR1COMMON
A:\VISUAL STUDIO\VC\TOOLS\MSVC\14.24.28314\INCLUDE\CSTDIO
C:\PROGRAM FILES (X86)\WINDOWS KITS\10\INCLUDE\10.0.18362.0\UCRT\STDIO.H
C:\PROGRAM FILES (X86)\WINDOWS KITS\10\INCLUDE\10.0.18362.0\UCRT\CORECRT_WSTDIO.H
C:\PROGRAM FILES (X86)\WINDOWS KITS\10\INCLUDE\10.0.18362.0\UCRT\CORECRT_STDIO_CONFIG.H
A:\VISUAL STUDIO\VC\TOOLS\MSVC\14.24.28314\INCLUDE\STREAMBUF
A:\VISUAL STUDIO\VC\TOOLS\MSVC\14.24.28314\INCLUDE\XIOSBASE
C:\PROGRAM FILES (X86)\WINDOWS KITS\10\INCLUDE\10.0.18362.0\UCRT\SHARE.H
C:\PROGRAM FILES (X86)\WINDOWS KITS\10\INCLUDE\10.0.18362.0\UCRT\CORECRT_SHARE.H
A:\VISUAL STUDIO\VC\TOOLS\MSVC\14.24.28314\INCLUDE\SYSTEM_ERROR
A:\VISUAL STUDIO\VC\TOOLS\MSVC\14.24.28314\INCLUDE\CERRNO
C:\PROGRAM FILES (X86)\WINDOWS KITS\10\INCLUDE\10.0.18362.0\UCRT\ERRNO.H
A:\VISUAL STUDIO\VC\TOOLS\MSVC\14.24.28314\INCLUDE\STDEXCEPT
A:\VISUAL STUDIO\VC\TOOLS\MSVC\14.24.28314\INCLUDE\EXCEPTION
A:\VISUAL STUDIO\VC\TOOLS\MSVC\14.24.28314\INCLUDE\TYPE_TRAITS
A:\VISUAL STUDIO\VC\TOOLS\MSVC\14.24.28314\INCLUDE\XSTDDEF
A:\VISUAL STUDIO\VC\TOOLS\MSVC\14.24.28314\INCLUDE\CSTDDEF
A:\VISUAL STUDIO\VC\TOOLS\MSVC\14.24.28314\INCLUDE\INITIALIZER_LIST
C:\PROGRAM FILES (X86)\WINDOWS KITS\10\INCLUDE\10.0.18362.0\UCRT\MALLOC.H
A:\VISUAL STUDIO\VC\TOOLS\MSVC\14.24.28314\INCLUDE\VCRUNTIME_EXCEPTION.H
A:\VISUAL STUDIO\VC\TOOLS\MSVC\14.24.28314\INCLUDE\EH.H
C:\PROGRAM FILES (X86)\WINDOWS KITS\10\INCLUDE\10.0.18362.0\UCRT\CORECRT_TERMINATE.H
A:\VISUAL STUDIO\VC\TOOLS\MSVC\14.24.28314\INCLUDE\XSTRING
A:\VISUAL STUDIO\VC\TOOLS\MSVC\14.24.28314\INCLUDE\IOSFWD
A:\VISUAL STUDIO\VC\TOOLS\MSVC\14.24.28314\INCLUDE\CSTRING
C:\PROGRAM FILES (X86)\WINDOWS KITS\10\INCLUDE\10.0.18362.0\UCRT\STRING.H
C:\PROGRAM FILES (X86)\WINDOWS KITS\10\INCLUDE\10.0.18362.0\UCRT\CORECRT_MEMORY.H
C:\PROGRAM FILES (X86)\WINDOWS KITS\10\INCLUDE\10.0.18362.0\UCRT\CORECRT_MEMCPY_S.H
A:\VISUAL STUDIO\VC\TOOLS\MSVC\14.24.28314\INCLUDE\VCRUNTIME_STRING.H
C:\PROGRAM FILES (X86)\WINDOWS KITS\10\INCLUDE\10.0.18362.0\UCRT\CORECRT_WSTRING.H
A:\VISUAL STUDIO\VC\TOOLS\MSVC\14.24.28314\INCLUDE\CWCHAR
C:\PROGRAM FILES (X86)\WINDOWS KITS\10\INCLUDE\10.0.18362.0\UCRT\WCHAR.H
C:\PROGRAM FILES (X86)\WINDOWS KITS\10\INCLUDE\10.0.18362.0\UCRT\CORECRT_WCONIO.H
C:\PROGRAM FILES (X86)\WINDOWS KITS\10\INCLUDE\10.0.18362.0\UCRT\CORECRT_WCTYPE.H
C:\PROGRAM FILES (X86)\WINDOWS KITS\10\INCLUDE\10.0.18362.0\UCRT\CORECRT_WDIRECT.H
C:\PROGRAM FILES (X86)\WINDOWS KITS\10\INCLUDE\10.0.18362.0\UCRT\CORECRT_WIO.H
C:\PROGRAM FILES (X86)\WINDOWS KITS\10\INCLUDE\10.0.18362.0\UCRT\CORECRT_WPROCESS.H
C:\PROGRAM FILES (X86)\WINDOWS KITS\10\INCLUDE\10.0.18362.0\UCRT\CORECRT_WTIME.H
C:\PROGRAM FILES (X86)\WINDOWS KITS\10\INCLUDE\10.0.18362.0\UCRT\SYS\STAT.H
C:\PROGRAM FILES (X86)\WINDOWS KITS\10\INCLUDE\10.0.18362.0\UCRT\SYS\TYPES.H
A:\VISUAL STUDIO\VC\TOOLS\MSVC\14.24.28314\INCLUDE\XMEMORY
A:\VISUAL STUDIO\VC\TOOLS\MSVC\14.24.28314\INCLUDE\CSTDINT
A:\VISUAL STUDIO\VC\TOOLS\MSVC\14.24.28314\INCLUDE\STDINT.H
A:\VISUAL STUDIO\VC\TOOLS\MSVC\14.24.28314\INCLUDE\LIMITS
A:\VISUAL STUDIO\VC\TOOLS\MSVC\14.24.28314\INCLUDE\CFLOAT
C:\PROGRAM FILES (X86)\WINDOWS KITS\10\INCLUDE\10.0.18362.0\UCRT\FLOAT.H
A:\VISUAL STUDIO\VC\TOOLS\MSVC\14.24.28314\INCLUDE\NEW
A:\VISUAL STUDIO\VC\TOOLS\MSVC\14.24.28314\INCLUDE\XATOMIC.H
A:\VISUAL STUDIO\VC\TOOLS\MSVC\14.24.28314\INCLUDE\INTRIN0.H
A:\VISUAL STUDIO\VC\TOOLS\MSVC\14.24.28314\INCLUDE\XUTILITY
A:\VISUAL STUDIO\VC\TOOLS\MSVC\14.24.28314\INCLUDE\UTILITY
A:\VISUAL STUDIO\VC\TOOLS\MSVC\14.24.28314\INCLUDE\XCALL_ONCE.H
A:\VISUAL STUDIO\VC\TOOLS\MSVC\14.24.28314\INCLUDE\XERRC.H
A:\VISUAL STUDIO\VC\TOOLS\MSVC\14.24.28314\INCLUDE\XLOCALE
A:\VISUAL STUDIO\VC\TOOLS\MSVC\14.24.28314\INCLUDE\MEMORY
A:\VISUAL STUDIO\VC\TOOLS\MSVC\14.24.28314\INCLUDE\TYPEINFO
A:\VISUAL STUDIO\VC\TOOLS\MSVC\14.24.28314\INCLUDE\VCRUNTIME_TYPEINFO.H
A:\VISUAL STUDIO\VC\TOOLS\MSVC\14.24.28314\INCLUDE\XFACET
A:\VISUAL STUDIO\VC\TOOLS\MSVC\14.24.28314\INCLUDE\XLOCINFO
A:\VISUAL STUDIO\VC\TOOLS\MSVC\14.24.28314\INCLUDE\XLOCINFO.H
C:\PROGRAM FILES (X86)\WINDOWS KITS\10\INCLUDE\10.0.18362.0\UCRT\CTYPE.H
C:\PROGRAM FILES (X86)\WINDOWS KITS\10\INCLUDE\10.0.18362.0\UCRT\LOCALE.H
C:\PROGRAM FILES (X86)\WINDOWS KITS\10\INCLUDE\10.0.18362.0\UCRT\CONIO.H
A:\VISUAL STUDIO\VC\TOOLS\MSVC\14.24.28314\INCLUDE\STRING
A:\VISUAL STUDIO\VC\TOOLS\MSVC\14.24.28314\INCLUDE\CCTYPE
