^C:\USERS\TERPY\DOCUMENTS\PROGRAMMING\C++\ASSIGN3\ASSIGNMENT-3-POINTERS\ASSIGNMENT 3 - POINTERS\ASSIGNMENT 3 - POINTERS\MAIN.CPP
C:\USERS\TERPY\DOCUMENTS\PROGRAMMING\C++\ASSIGN3\ASSIGNMENT-3-POINTERS\ASSIGNMENT 3 - POINTERS\ASSIGNMENT 3 - POINTERS\X64\DEBUG\VC142.PDB
C:\USERS\TERPY\DOCUMENTS\PROGRAMMING\C++\ASSIGN3\ASSIGNMENT-3-POINTERS\ASSIGNMENT 3 - POINTERS\ASSIGNMENT 3 - POINTERS\X64\DEBUG\VC142.IDB
C:\USERS\TERPY\DOCUMENTS\PROGRAMMING\C++\ASSIGN3\ASSIGNMENT-3-POINTERS\ASSIGNMENT 3 - POINTERS\ASSIGNMENT 3 - POINTERS\X64\DEBUG\MAIN.OBJ
